{
    "msg": "操作成功",
    "code": 0,
    "data": {
        "total": 261,
        "list": [
            {
                "gid": 6,
                "id": 1,
                "name": "北创科技园",
                "address": "梁溪区北大街街道兴源北路401号",
                "hkt": "户况图",
                "date": "2020-12-01",
                "syxz": "闲置"
            },
            {
                "gid": 9,
                "id": 2,
                "name": "北创科技园",
                "address": "梁溪区北大街街道兴源北路401号",
                "hkt": "户况图",
                "date": "2020-12-02",
                "syxz": "租住"
            },
            {
                "gid": 6,
                "id": 3,
                "name": "北创科技园",
                "address": "梁溪区北大街街道兴源北路401号",
                "hkt": "户况图",
                "date": "2020-12-08",
                "syxz": "自用"
            },
            {
                "gid": 24,
                "id": 4,
                "name": "北创科技园-三期",
                "address": "梁溪区北大街街道兴源北路401号",
                "hkt": "户况图",
                "date": "2020-12-5",
                "syxz": "自用"
            },
            {
                "gid": 27,
                "id": 5,
                "name": "北创科技园-三期",
                "address": "梁溪区北大街街道兴源北路401号",
                "hkt": "户况图",
                "date": "2020-12-18",
                "syxz": "自用"
            },
            {
                "gid": 29,
                "id": 29,
                "name": "北创科技园-三期",
                "address": "梁溪区北大街街道兴源北路401号",
                "hkt": "户况图",
                "date": "2020-12-19",
                "syxz": "自用"
            },
            {
                "gid": 32,
                "id": 6,
                "name": "北创科技园-三期",
                "address": "梁溪区北大街街道兴源北路401号",
                "hkt": "户况图",
                "date": "2020-12-24",
                "syxz": "租用"
            },
            {
                "gid": 33,
                "id": 7,
                "name": "北创科技园-三期",
                "address": "梁溪区北大街街道兴源北路401号",
                "hkt": "户况图",
                "date": "2020-12-25",
                "syxz": "自用"
            },
            {
                "gid": 36,
                "id": 8,
                "name": "北创科技园-三期",
                "address": "梁溪区北大街街道兴源北路401号",
                "hkt": "户况图",
                "date": "2020-12-01",
                "syxz": "租用"
            },
            {
                "gid": 42,
                "id": 9,
                "name": "北创科技园-三期",
                "address": "梁溪区北大街街道兴源北路401号",
                "hkt": "户况图",
                "date": "2020-12-11",
                "syxz": "自用"
            }
        ],
        "pagination": {
            "pageCount": 10,
            "pageIndex": 0,
            "pageSize": 10,
            "total": 1000
        }
        
    }
}